0.000, 0.000, 0.000, 50.000
0.000, 0.000, 0.000, 50.000
82.000, 8.200, 0.000, 50.000
88.900, 16.270, 1.476, 50.000
91.900, 23.833, 2.922, 50.000
92.800, 30.730, 4.340, 50.000
76.900, 35.347, 5.729, 50.000
89.900, 40.802, 7.091, 50.000
91.800, 45.902, 8.425, 50.000
89.800, 50.292, 9.732, 50.000
95.900, 54.852, 11.014, 50.000
107.000, 60.067, 12.269, 50.000
82.200, 62.281, 13.500, 50.000
88.900, 64.942, 14.706, 50.000
82.800, 66.728, 15.888, 50.000
87.900, 68.845, 17.046, 50.000
97.500, 71.711, 18.181, 50.000
88.900, 73.430, 19.294, 50.000
97.900, 75.877, 20.384, 50.000
102.000, 78.489, 21.452, 50.000
89.900, 79.630, 22.499, 50.000
81.800, 79.847, 23.525, 50.000
88.900, 80.752, 24.531, 50.000
91.000, 81.777, 25.493, 50.000
89.800, 82.579, 26.344, 50.000
81.900, 82.512, 27.059, 50.000
89.900, 83.250, 27.499, 50.000
104.000, 85.325, 27.931, 50.000
89.900, 85.783, 28.311, 50.000
82.200, 85.425, 28.684, 50.000
89.900, 85.872, 29.049, 50.000
87.900, 86.075, 29.406, 50.000
89.900, 86.457, 29.334, 50.000
82.900, 86.102, 29.263, 50.000
89.800, 86.471, 29.194, 50.000
102.000, 88.024, 29.126, 50.000
87.900, 88.012, 29.059, 50.000
83.600, 87.571, 28.948, 50.000
89.900, 87.804, 28.839, 50.000
90.900, 88.113, 28.733, 50.000
91.800, 88.482, 28.531, 50.000
86.900, 88.324, 28.334, 50.000
82.900, 87.781, 28.141, 50.000
89.900, 87.993, 27.952, 50.000
90.900, 88.284, 27.766, 50.000
94.900, 88.946, 27.584, 50.000
94.900, 89.541, 27.406, 50.000
86.900, 89.277, 27.232, 50.000
84.900, 88.839, 26.966, 50.000
89.900, 88.945, 26.707, 50.000
91.800, 89.231, 26.452, 50.000
87.900, 89.098, 26.203, 50.000
98.900, 90.078, 25.958, 50.000
107.000, 91.770, 25.718, 50.000
99.900, 92.583, 25.509, 50.000
83.800, 91.705, 25.303, 50.000
109.000, 93.434, 25.102, 50.000
97.900, 93.881, 24.911, 50.000
76.900, 92.183, 24.724, 50.000
89.100, 91.875, 24.541, 50.000
86.900, 91.377, 24.361, 50.000
82.900, 90.529, 24.185, 50.000
88.800, 90.356, 24.013, 50.000
86.800, 90.001, 23.844, 50.000
90.000, 90.001, 23.678, 50.000
85.900, 89.591, 23.516, 50.000
89.900, 89.622, 23.357, 50.000
98.900, 90.549, 23.201, 50.000
80.300, 89.524, 23.049, 50.000
89.800, 89.552, 22.899, 50.000
89.900, 89.587, 22.752, 50.000
96.400, 90.268, 22.609, 50.000
85.900, 89.831, 22.468, 50.000
110.000, 91.848, 22.330, 50.000
93.200, 91.983, 22.246, 50.000
79.900, 90.775, 22.164, 50.000
91.900, 90.888, 22.084, 50.000
91.000, 90.899, 22.005, 50.000
96.900, 91.499, 21.928, 50.000
89.900, 91.339, 21.853, 50.000
81.000, 90.305, 21.779, 50.000
96.800, 90.955, 21.706, 50.000
99.000, 91.759, 21.635, 50.000
96.800, 92.263, 21.565, 50.000
88.800, 91.917, 21.497, 50.000
86.900, 91.415, 21.430, 50.000
85.900, 90.864, 21.365, 50.000
110.000, 92.777, 21.300, 50.000
91.400, 92.640, 21.237, 50.000
90.900, 92.466, 21.176, 50.000
79.900, 91.209, 21.115, 50.000
82.900, 90.378, 21.056, 50.000
111.000, 92.440, 20.998, 50.000
92.700, 92.466, 20.949, 50.000
82.800, 91.500, 20.901, 50.000
88.900, 91.240, 20.855, 50.000
103.000, 92.416, 20.809, 50.000
86.100, 91.784, 20.764, 50.000
78.900, 90.496, 20.720, 50.000
100.000, 91.446, 20.676, 50.000
86.900, 90.992, 20.634, 50.000
103.000, 92.192, 20.593, 50.000
93.000, 92.273, 20.552, 50.000
89.900, 92.036, 20.512, 50.000
79.900, 90.822, 20.473, 50.000
85.900, 90.330, 20.435, 50.000
89.900, 90.287, 20.397, 50.000
83.000, 89.558, 20.360, 50.000
98.900, 90.492, 20.324, 50.000
87.900, 90.233, 20.289, 50.000
89.900, 90.200, 20.255, 50.000
96.700, 90.850, 20.221, 50.000
86.800, 90.445, 20.187, 50.000
101.000, 91.500, 20.016, 50.000
89.900, 91.340, 19.847, 50.000
82.900, 90.496, 19.682, 50.000
92.200, 90.667, 19.520, 50.000
98.800, 91.480, 19.362, 50.000
97.900, 92.122, 19.207, 50.000
85.100, 91.420, 19.041, 50.000
89.700, 91.248, 18.879, 50.000
93.900, 91.513, 18.719, 50.000
86.800, 91.042, 18.564, 50.000
81.900, 90.128, 18.411, 50.000
82.900, 89.405, 18.261, 50.000
83.800, 88.844, 18.086, 50.000
98.800, 89.840, 17.914, 50.000
89.800, 89.836, 17.746, 50.000
87.000, 89.552, 17.581, 50.000
106.000, 91.197, 17.419, 50.000
87.100, 90.787, 17.367, 50.000
103.000, 92.009, 17.316, 50.000
92.900, 92.098, 17.265, 50.000
85.800, 91.468, 17.216, 50.000
99.900, 92.311, 17.168, 50.000
90.000, 92.080, 17.120, 50.000
90.000, 91.872, 17.074, 50.000
89.900, 91.675, 17.029, 50.000
86.900, 91.197, 16.984, 50.000
83.700, 90.448, 16.941, 50.000
79.700, 89.373, 16.898, 50.000
89.800, 89.416, 16.856, 50.000
78.900, 88.364, 16.815, 50.000
88.900, 88.418, 16.775, 50.000
85.000, 88.076, 16.735, 50.000
90.900, 88.358, 16.697, 50.000
96.700, 89.192, 16.659, 50.000
105.000, 90.773, 16.622, 50.000
88.000, 90.496, 16.585, 50.000
102.000, 91.646, 16.550, 50.000
84.100, 90.892, 16.503, 50.000
82.800, 90.083, 16.458, 50.000
89.900, 90.064, 16.413, 50.000
82.600, 89.318, 16.369, 50.000
91.800, 89.566, 16.326, 50.000
97.000, 90.309, 16.284, 50.000
89.700, 90.248, 16.243, 50.000
81.900, 89.414, 16.203, 50.000
94.900, 89.962, 16.163, 50.000
87.000, 89.666, 16.125, 50.000
92.900, 89.989, 16.087, 50.000
96.900, 90.681, 16.049, 50.000
99.000, 91.512, 16.013, 50.000
106.000, 92.961, 15.977, 50.000
82.900, 91.955, 15.942, 50.000
82.800, 91.040, 15.908, 50.000
97.600, 91.696, 15.874, 50.000
86.900, 91.216, 15.841, 50.000
76.800, 89.774, 15.785, 50.000
96.900, 90.487, 15.730, 50.000
85.900, 90.028, 15.677, 50.000
96.900, 90.715, 15.624, 50.000
86.900, 90.334, 15.572, 50.000
99.900, 91.291, 15.521, 50.000
95.700, 91.731, 15.472, 50.000
85.900, 91.148, 15.423, 50.000
96.700, 91.704, 15.375, 50.000
88.900, 91.423, 15.329, 50.000
102.000, 92.481, 15.283, 50.000
89.800, 92.213, 15.238, 50.000
91.800, 92.171, 15.194, 50.000
94.800, 92.434, 15.151, 50.000
94.900, 92.681, 15.109, 50.000
79.900, 91.403, 15.067, 50.000
89.800, 91.243, 15.025, 50.000
89.800, 91.098, 14.984, 50.000
89.800, 90.968, 14.944, 50.000
88.800, 90.752, 14.905, 50.000
86.800, 90.356, 14.866, 50.000
85.900, 89.911, 14.799, 50.000
102.000, 91.120, 14.733, 50.000
85.100, 90.518, 14.668, 50.000
90.900, 90.556, 14.605, 50.000
83.000, 89.800, 14.543, 50.000
98.900, 90.710, 14.482, 50.000
92.600, 90.899, 14.423, 50.000
96.000, 91.409, 14.364, 50.000
100.000, 92.268, 14.307, 50.000
82.900, 91.332, 14.251, 50.000
93.900, 91.588, 14.196, 50.000
89.600, 91.390, 14.142, 50.000
91.100, 91.361, 14.089, 50.000
107.000, 92.925, 14.038, 50.000
87.800, 92.412, 14.038, 50.000
87.000, 91.871, 14.039, 50.000
85.900, 91.274, 14.040, 50.000
85.600, 90.706, 14.041, 50.000
89.900, 90.626, 14.041, 50.000
84.900, 90.053, 14.042, 50.000
81.800, 89.228, 14.043, 50.000
98.100, 90.115, 14.043, 50.000
96.900, 90.794, 14.044, 50.000
80.100, 89.724, 14.045, 50.000
90.800, 89.832, 14.045, 50.000
86.800, 89.529, 14.046, 50.000
86.700, 89.246, 14.046, 50.000
87.700, 89.091, 14.047, 50.000
89.800, 89.162, 14.048, 50.000
82.900, 88.536, 14.048, 50.000
97.900, 89.472, 14.049, 50.000
95.900, 90.115, 14.049, 50.000
79.000, 89.004, 14.050, 50.000
89.000, 89.003, 14.050, 50.000
83.900, 88.493, 13.969, 50.000
90.000, 88.644, 13.890, 50.000
83.700, 88.149, 13.812, 50.000
100.000, 89.334, 13.736, 50.000
89.900, 89.391, 13.675, 50.000
95.800, 90.032, 13.614, 50.000
96.800, 90.709, 13.555, 50.000
86.800, 90.318, 13.498, 50.000
95.800, 90.866, 13.441, 50.000
90.800, 90.859, 13.386, 50.000
82.900, 90.063, 13.331, 50.000
96.900, 90.747, 13.278, 50.000
86.800, 90.352, 13.226, 50.000
102.000, 91.517, 13.174, 50.000
95.800, 91.945, 13.124, 50.000
92.800, 92.031, 13.075, 50.000
106.000, 93.428, 13.027, 50.000
87.000, 92.785, 13.018, 50.000
85.900, 92.097, 13.009, 50.000
84.900, 91.377, 13.000, 50.000
100.000, 92.239, 12.992, 50.000
83.200, 91.335, 12.983, 50.000
89.600, 91.162, 12.975, 50.000
81.900, 90.236, 12.967, 50.000
98.000, 91.012, 12.959, 50.000
89.600, 90.871, 12.951, 50.000
99.000, 91.684, 12.944, 50.000
97.000, 92.215, 12.936, 50.000
83.000, 91.294, 12.929, 50.000
96.800, 91.844, 12.922, 50.000
96.700, 92.330, 12.915, 50.000
95.800, 92.677, 12.908, 50.000
106.000, 94.009, 12.901, 50.000
88.800, 93.488, 12.895, 50.000
102.000, 94.340, 12.888, 50.000
85.200, 93.426, 12.882, 50.000
90.900, 93.173, 12.876, 50.000
82.900, 92.146, 12.858, 50.000
98.900, 92.821, 12.841, 50.000
96.600, 93.199, 12.824, 50.000
79.100, 91.789, 12.807, 50.000
106.000, 93.210, 12.805, 50.000
87.800, 92.669, 12.804, 50.000
92.900, 92.692, 12.804, 50.000
85.700, 91.993, 12.804, 50.000
82.800, 91.074, 12.804, 50.000
95.900, 91.556, 12.803, 50.000
95.800, 91.981, 12.803, 50.000
106.000, 93.383, 12.803, 50.000
89.900, 93.034, 12.802, 50.000
103.000, 94.031, 12.802, 50.000
86.000, 93.228, 12.802, 50.000
91.900, 93.095, 12.802, 50.000
82.900, 92.076, 12.801, 50.000
98.900, 92.758, 12.801, 50.000
96.700, 93.152, 12.801, 50.000
79.800, 91.817, 12.801, 50.000
106.000, 93.235, 12.801, 50.000
87.000, 92.612, 12.800, 50.000
102.000, 93.551, 12.800, 50.000
85.100, 92.706, 12.800, 50.000
99.800, 93.415, 12.800, 50.000
80.000, 92.073, 12.799, 50.000
95.900, 92.456, 12.798, 50.000
89.600, 92.171, 12.798, 50.000
86.800, 91.633, 12.797, 50.000
103.000, 92.770, 12.796, 50.000
84.800, 91.973, 12.796, 50.000
97.000, 92.476, 12.795, 50.000
89.800, 92.208, 12.794, 50.000
86.800, 91.667, 12.794, 50.000
85.900, 91.091, 12.793, 50.000
82.900, 90.272, 12.793, 50.000
97.000, 90.944, 12.792, 50.000
106.000, 92.450, 12.792, 50.000
89.900, 92.195, 12.807, 50.000
105.000, 93.475, 12.822, 50.000
87.100, 92.838, 12.836, 50.000
93.700, 92.924, 12.851, 50.000
82.900, 91.922, 12.865, 50.000
99.500, 92.680, 12.878, 50.000
96.600, 93.072, 12.892, 50.000
85.800, 92.344, 12.905, 50.000
89.900, 92.100, 12.918, 50.000
86.800, 91.570, 12.930, 50.000
102.000, 92.613, 12.943, 50.000
98.800, 93.232, 12.955, 50.000
79.900, 91.899, 12.967, 50.000
89.800, 91.689, 12.978, 50.000
87.800, 91.300, 12.990, 50.000
102.000, 92.370, 13.001, 50.000
85.100, 91.643, 13.012, 50.000
99.800, 92.459, 13.023, 50.000
91.800, 92.393, 13.033, 50.000
87.900, 91.943, 13.044, 50.000
79.500, 90.699, 13.023, 50.000
91.800, 90.809, 13.002, 50.000
89.800, 90.708, 12.982, 50.000
82.800, 89.917, 12.963, 50.000
98.800, 90.806, 12.943, 50.000
89.800, 90.705, 12.924, 50.000
88.700, 90.505, 12.906, 50.000
106.000, 92.054, 12.888, 50.000
90.200, 91.869, 12.909, 50.000
102.000, 92.882, 12.930, 50.000
85.000, 92.094, 12.950, 50.000
90.900, 91.974, 12.970, 50.000
93.900, 92.167, 12.989, 50.000
99.500, 92.900, 13.009, 50.000
106.000, 94.210, 13.027, 50.000
92.800, 94.069, 13.046, 50.000
80.800, 92.742, 13.064, 50.000
93.800, 92.848, 13.081, 50.000
83.800, 91.943, 13.099, 50.000
85.900, 91.339, 13.116, 50.000
101.000, 92.305, 13.132, 50.000
83.100, 91.385, 13.148, 50.000
96.100, 91.856, 13.164, 50.000
114.000, 94.070, 13.180, 50.000
92.000, 93.863, 13.315, 50.000
93.600, 93.837, 13.447, 50.000
82.800, 92.733, 13.577, 50.000
95.800, 93.040, 13.704, 50.000
91.900, 92.926, 13.828, 50.000
89.900, 92.623, 13.951, 50.000
106.000, 93.961, 14.070, 50.000
104.000, 94.965, 14.187, 50.000
87.100, 94.178, 14.302, 50.000
84.800, 93.241, 14.415, 50.000
101.000, 94.017, 14.525, 50.000
83.100, 92.925, 14.633, 50.000
89.800, 92.612, 14.739, 50.000
82.700, 91.621, 14.843, 50.000
98.800, 92.339, 14.945, 50.000
96.700, 92.775, 15.044, 50.000
79.000, 91.398, 15.142, 50.000
106.000, 92.858, 15.238, 50.000
87.100, 92.282, 15.332, 50.000
92.900, 92.344, 15.423, 50.000
85.700, 91.679, 15.378, 50.000
99.800, 92.492, 15.333, 50.000
96.600, 92.902, 15.289, 50.000
95.900, 93.202, 15.246, 50.000
106.000, 94.482, 15.204, 50.000
86.900, 93.724, 15.163, 50.000
102.000, 94.551, 15.123, 50.000
85.000, 93.596, 15.083, 50.000
91.700, 93.407, 15.044, 50.000
83.900, 92.456, 15.006, 50.000
99.700, 93.180, 14.969, 50.000
97.800, 93.642, 14.932, 50.000
83.900, 92.668, 14.897, 50.000
89.800, 92.381, 14.861, 50.000
103.000, 93.443, 14.827, 50.000
86.000, 92.699, 14.793, 50.000
84.900, 91.919, 14.760, 50.000
99.800, 92.707, 14.728, 50.000
90.900, 92.526, 14.664, 50.000
96.800, 92.954, 14.601, 50.000
96.800, 93.338, 14.539, 50.000
103.000, 94.305, 14.479, 50.000
80.900, 92.964, 14.420, 50.000
99.900, 93.658, 14.372, 50.000
83.800, 92.672, 14.326, 50.000
100.000, 93.405, 14.281, 50.000
88.900, 92.954, 14.237, 50.000
91.800, 92.839, 14.193, 50.000
95.800, 93.135, 14.151, 50.000
86.800, 92.501, 14.109, 50.000
89.900, 92.241, 14.068, 50.000
89.900, 92.007, 14.028, 50.000
82.900, 91.096, 13.989, 50.000
102.000, 92.187, 13.950, 50.000
80.000, 90.968, 13.912, 50.000
89.900, 90.861, 13.876, 50.000
89.900, 90.765, 13.839, 50.000
87.900, 90.479, 13.804, 50.000
93.700, 90.801, 13.769, 50.000
82.900, 90.011, 13.735, 50.000
96.900, 90.700, 13.701, 50.000
95.900, 91.220, 13.669, 50.000
91.800, 91.278, 13.637, 50.000
96.800, 91.830, 13.583, 50.000
83.800, 91.027, 13.531, 50.000
89.900, 90.914, 13.480, 50.000
88.900, 90.713, 13.429, 50.000
82.900, 89.932, 13.380, 50.000
98.900, 90.828, 13.332, 50.000
89.800, 90.726, 13.285, 50.000
88.800, 90.533, 13.238, 50.000
106.000, 92.080, 13.193, 50.000
87.000, 91.572, 13.208, 50.000
85.800, 90.995, 13.222, 50.000
84.900, 90.385, 13.236, 50.000
100.000, 91.347, 13.249, 50.000
83.000, 90.512, 13.263, 50.000
99.900, 91.451, 13.276, 50.000
82.000, 90.506, 13.289, 50.000
97.800, 91.235, 13.302, 50.000
79.900, 90.102, 13.314, 50.000
95.800, 90.671, 13.326, 50.000
89.700, 90.574, 13.338, 50.000
86.900, 90.207, 13.350, 50.000
93.800, 90.566, 13.361, 50.000
82.900, 89.800, 13.372, 50.000
96.800, 90.500, 13.383, 50.000
97.900, 91.240, 13.394, 50.000
95.800, 91.696, 13.404, 50.000
106.000, 93.126, 13.415, 50.000
86.900, 92.503, 13.425, 50.000
75.900, 90.843, 13.435, 50.000
111.000, 92.859, 13.465, 50.000
91.000, 92.673, 13.558, 50.000
83.000, 91.706, 13.650, 50.000
97.900, 92.325, 13.740, 50.000
105.000, 93.593, 13.828, 50.000
85.000, 92.733, 13.914, 50.000
96.800, 93.140, 13.999, 50.000
77.000, 91.526, 14.082, 50.000
92.700, 91.643, 14.163, 50.000
106.000, 93.079, 14.242, 50.000
89.800, 92.751, 14.320, 50.000
105.000, 93.976, 14.397, 50.000
94.800, 94.058, 14.472, 50.000
110.000, 95.653, 14.545, 50.000
93.100, 95.397, 14.617, 50.000
82.800, 94.138, 14.687, 50.000
82.900, 93.014, 14.756, 50.000
88.900, 92.602, 14.824, 50.000
96.800, 93.022, 14.891, 50.000
89.800, 92.700, 14.956, 50.000
96.800, 93.110, 15.019, 50.000
82.800, 92.079, 15.009, 50.000
83.800, 91.251, 15.000, 50.000
98.800, 92.006, 14.990, 50.000
82.900, 91.095, 14.981, 50.000
98.900, 91.876, 14.972, 50.000
95.800, 92.268, 14.963, 50.000
84.900, 91.531, 14.954, 50.000
96.800, 92.058, 14.942, 50.000
94.900, 92.342, 14.930, 50.000
92.900, 92.398, 14.919, 50.000
89.800, 92.138, 14.907, 50.000
91.800, 92.105, 14.896, 50.000
90.800, 91.974, 14.885, 50.000
89.800, 91.757, 14.814, 50.000
97.900, 92.371, 14.744, 50.000
86.800, 91.814, 14.652, 50.000
94.900, 92.123, 14.544, 50.000
111.000, 94.010, 14.439, 50.000
94.100, 94.019, 14.490, 50.000
82.900, 92.907, 14.540, 50.000
98.900, 93.507, 14.589, 50.000
98.900, 94.046, 14.637, 50.000
96.900, 94.331, 14.684, 50.000
106.000, 95.498, 14.730, 50.000
87.100, 94.658, 14.775, 50.000
102.000, 95.393, 14.820, 50.000
85.000, 94.353, 14.863, 50.000
90.800, 93.998, 14.906, 50.000
82.900, 92.888, 14.947, 50.000
99.600, 93.559, 14.988, 50.000
116.000, 95.803, 15.028, 50.000
99.000, 96.123, 15.132, 50.000
90.800, 95.591, 15.233, 50.000
76.900, 93.722, 15.332, 50.000
92.800, 93.630, 15.429, 50.000
82.900, 92.557, 15.525, 50.000
99.700, 93.271, 15.618, 50.000
89.800, 92.924, 15.710, 50.000
96.900, 93.321, 15.800, 50.000
96.800, 93.669, 15.887, 50.000
86.800, 92.982, 15.974, 50.000
96.800, 93.364, 16.058, 50.000
98.800, 93.908, 16.141, 50.000
82.800, 92.797, 16.222, 50.000
98.800, 93.397, 16.301, 50.000
99.800, 94.038, 16.379, 50.000
82.800, 92.914, 16.456, 50.000
81.800, 91.802, 16.531, 50.000
99.800, 92.602, 16.604, 50.000
82.800, 91.622, 16.676, 50.000
98.800, 92.340, 16.746, 50.000
97.800, 92.886, 16.748, 50.000
89.900, 92.587, 16.749, 50.000
96.900, 93.018, 16.751, 50.000
86.900, 92.407, 16.618, 50.000
85.900, 91.756, 16.488, 50.000
95.800, 92.160, 16.360, 50.000
90.800, 92.024, 16.235, 50.000
106.000, 93.422, 16.113, 50.000
88.900, 92.970, 16.042, 50.000
76.900, 91.363, 15.973, 50.000
85.800, 90.806, 15.943, 50.000
91.700, 90.896, 15.913, 50.000
82.800, 90.086, 15.884, 50.000
96.700, 90.748, 15.856, 50.000
96.800, 91.353, 15.828, 50.000
83.800, 90.598, 15.801, 50.000
82.800, 89.818, 15.774, 50.000
83.700, 89.206, 15.748, 50.000
82.700, 88.555, 15.722, 50.000
98.800, 89.580, 15.697, 50.000
80.900, 88.712, 15.672, 50.000
95.800, 89.421, 15.648, 50.000
106.000, 91.079, 15.624, 50.000
94.800, 91.451, 15.610, 50.000
87.600, 91.066, 15.596, 50.000
83.800, 90.339, 15.583, 50.000
96.900, 90.995, 15.570, 50.000
82.800, 90.176, 15.557, 50.000
88.800, 90.038, 15.544, 50.000
88.600, 89.894, 15.531, 50.000
82.900, 89.195, 15.519, 50.000
96.800, 89.955, 15.507, 50.000
106.000, 91.560, 15.496, 50.000
88.900, 91.294, 15.484, 50.000
104.000, 92.564, 15.473, 50.000
87.100, 92.018, 15.462, 50.000
92.800, 92.096, 15.451, 50.000
82.800, 91.167, 15.440, 50.000
99.700, 92.020, 15.430, 50.000
97.700, 92.588, 15.420, 50.000
92.900, 92.619, 15.410, 50.000
106.000, 93.957, 15.400, 50.000
93.900, 93.952, 15.391, 50.000
102.000, 94.756, 15.372, 50.000
85.000, 93.781, 15.353, 50.000
100.000, 94.403, 15.335, 50.000
83.000, 93.262, 15.317, 50.000
103.000, 94.236, 15.299, 50.000
80.900, 92.903, 15.282, 50.000
95.900, 93.202, 15.265, 50.000
106.000, 94.482, 15.249, 50.000
87.000, 93.734, 15.233, 50.000
103.000, 94.660, 15.217, 50.000
83.000, 93.494, 15.153, 50.000
92.900, 93.435, 15.091, 50.000
89.700, 93.061, 15.030, 50.000
83.900, 92.145, 14.970, 50.000
93.700, 92.301, 14.912, 50.000
99.900, 93.061, 14.854, 50.000
97.800, 93.535, 14.798, 50.000
99.800, 94.161, 14.743, 50.000
82.600, 93.005, 14.689, 50.000
90.000, 92.705, 14.635, 50.000
98.900, 93.324, 14.583, 50.000
82.700, 92.262, 14.531, 50.000
82.800, 91.316, 14.480, 50.000
93.800, 91.564, 14.431, 50.000
82.800, 90.688, 14.382, 50.000
98.800, 91.499, 14.335, 50.000
91.800, 91.529, 14.278, 50.000
89.900, 91.366, 14.223, 50.000
96.700, 91.899, 14.149, 50.000
87.000, 91.409, 14.076, 50.000
96.700, 91.939, 14.004, 50.000
89.800, 91.725, 13.932, 50.000
91.900, 91.742, 13.861, 50.000
96.700, 92.238, 13.792, 50.000
86.800, 91.694, 13.725, 50.000
95.900, 92.115, 13.658, 50.000
99.800, 92.883, 13.593, 50.000
82.800, 91.875, 13.529, 50.000
98.900, 92.577, 13.467, 50.000
99.800, 93.300, 13.389, 50.000
82.800, 92.250, 13.312, 50.000
81.800, 91.205, 13.237, 50.000
99.800, 92.064, 13.161, 50.000
87.700, 91.628, 13.087, 50.000
82.900, 90.755, 13.014, 50.000
97.900, 91.470, 12.943, 50.000
88.900, 91.213, 12.873, 50.000
104.000, 92.491, 12.805, 50.000
88.800, 92.122, 12.779, 50.000
89.800, 91.890, 12.753, 50.000
96.800, 92.381, 12.729, 50.000
89.900, 92.133, 12.704, 50.000
96.700, 92.590, 12.680, 50.000
82.700, 91.601, 12.657, 50.000
99.800, 92.421, 12.634, 50.000
95.900, 92.769, 12.611, 50.000
91.800, 92.672, 12.589, 50.000
106.000, 94.005, 12.568, 50.000
87.000, 93.304, 12.556, 50.000
76.800, 91.654, 12.545, 50.000
85.800, 91.068, 12.591, 50.000
91.900, 91.151, 12.636, 50.000
82.800, 90.316, 12.681, 50.000
96.900, 90.975, 12.724, 50.000
96.900, 91.567, 12.767, 50.000
79.900, 90.400, 12.809, 50.000
82.900, 89.650, 12.849, 50.000
82.700, 88.955, 12.890, 50.000
82.800, 88.340, 12.929, 50.000
95.800, 89.086, 12.967, 50.000
84.900, 88.667, 13.005, 50.000
84.800, 88.281, 13.042, 50.000
96.600, 89.113, 13.078, 50.000
86.900, 88.891, 13.114, 50.000
89.900, 88.992, 13.149, 50.000
105.000, 90.593, 13.183, 50.000
93.000, 90.834, 13.216, 50.000
96.800, 91.430, 13.249, 50.000
106.000, 92.887, 13.281, 50.000
89.000, 92.499, 13.312, 50.000
98.600, 93.109, 13.334, 50.000
92.700, 93.068, 13.356, 50.000
95.800, 93.341, 13.377, 50.000
88.500, 92.857, 13.397, 50.000
95.000, 93.071, 13.418, 50.000
84.900, 92.254, 13.437, 50.000
89.800, 92.009, 13.457, 50.000
88.800, 91.688, 13.476, 50.000
90.800, 91.599, 13.494, 50.000
79.800, 90.419, 13.513, 50.000
86.800, 90.057, 13.531, 50.000
86.800, 89.731, 13.548, 50.000
84.800, 89.238, 13.565, 50.000
96.600, 89.975, 13.582, 50.000
106.000, 91.577, 13.599, 50.000
89.000, 91.319, 13.615, 50.000
95.700, 91.757, 13.631, 50.000
77.900, 90.372, 13.647, 50.000
93.700, 90.705, 13.663, 50.000
90.700, 90.704, 13.678, 50.000
85.600, 90.194, 13.693, 50.000
88.900, 90.064, 13.707, 50.000
91.900, 90.248, 13.722, 50.000
101.000, 91.323, 13.736, 50.000
84.700, 90.661, 13.749, 50.000
96.800, 91.275, 13.763, 50.000
99.800, 92.127, 13.776, 50.000
82.700, 91.184, 13.789, 50.000
95.800, 91.646, 13.802, 50.000
82.700, 90.751, 13.814, 50.000
90.800, 90.756, 13.826, 50.000
81.800, 89.861, 13.838, 50.000
93.000, 90.175, 13.850, 50.000
81.800, 89.337, 13.861, 50.000
88.800, 89.283, 13.873, 50.000
80.900, 88.445, 13.845, 50.000
96.600, 89.261, 13.817, 50.000
89.000, 89.235, 13.790, 50.000
91.800, 89.491, 13.708, 50.000
89.800, 89.522, 13.627, 50.000
86.800, 89.250, 13.548, 50.000
96.700, 89.995, 13.471, 50.000
89.700, 89.965, 13.395, 50.000
90.000, 89.969, 13.321, 50.000
88.800, 89.852, 13.224, 50.000
86.800, 89.547, 13.129, 50.000
102.000, 90.792, 13.036, 50.000
92.900, 91.003, 13.000, 50.000
84.600, 90.363, 12.964, 50.000
83.800, 89.706, 12.929, 50.000
99.700, 90.706, 12.894, 50.000
89.800, 90.615, 12.861, 50.000
76.800, 89.234, 12.828, 50.000
105.000, 90.810, 12.820, 50.000
94.700, 91.199, 12.847, 50.000
102.000, 92.279, 12.874, 50.000
83.000, 91.351, 12.900, 50.000
95.800, 91.796, 12.926, 50.000
109.000, 93.517, 12.951, 50.000
91.000, 93.265, 13.002, 50.000
106.000, 94.538, 13.052, 50.000
113.000, 96.385, 13.100, 50.000
96.100, 96.356, 13.171, 50.000
99.900, 96.711, 13.239, 50.000
82.800, 95.319, 13.307, 50.000
90.000, 94.788, 13.373, 50.000
89.400, 94.249, 13.438, 50.000
93.800, 94.204, 13.501, 50.000
86.600, 93.444, 13.564, 50.000
99.700, 94.069, 13.625, 50.000
96.800, 94.342, 13.685, 50.000
79.000, 92.808, 13.743, 50.000
89.700, 92.497, 13.801, 50.000
86.800, 91.927, 13.857, 50.000
86.700, 91.405, 13.912, 50.000
86.500, 90.914, 13.966, 50.000
83.800, 90.203, 14.019, 50.000
82.500, 89.433, 14.071, 50.000
98.700, 90.359, 14.122, 50.000
81.100, 89.433, 14.172, 50.000
95.900, 90.080, 14.221, 50.000
106.000, 91.672, 14.269, 50.000
87.100, 91.215, 14.270, 50.000
93.500, 91.443, 14.271, 50.000
82.900, 90.589, 14.272, 50.000
82.800, 89.810, 14.273, 50.000
97.600, 90.589, 14.274, 50.000
96.900, 91.220, 14.275, 50.000
106.000, 92.698, 14.276, 50.000
89.100, 92.338, 14.277, 50.000
83.800, 91.485, 14.278, 50.000
98.800, 92.216, 14.279, 50.000
96.800, 92.674, 14.280, 50.000
86.500, 92.057, 14.281, 50.000
88.800, 91.731, 14.282, 50.000
76.800, 90.238, 14.283, 50.000
85.900, 89.804, 14.284, 50.000
99.800, 90.804, 14.285, 50.000
83.900, 90.114, 14.286, 50.000
89.800, 90.082, 14.287, 50.000
89.900, 90.064, 14.288, 50.000
95.800, 90.638, 14.288, 50.000
87.800, 90.354, 14.271, 50.000
95.800, 90.898, 14.255, 50.000
106.000, 92.409, 14.238, 50.000
87.000, 91.868, 14.225, 50.000
75.800, 90.261, 14.213, 50.000
85.600, 89.795, 14.218, 50.000
90.800, 89.895, 14.223, 50.000
82.800, 89.186, 14.227, 50.000
96.900, 89.957, 14.232, 50.000
116.000, 92.562, 14.237, 50.000
99.000, 93.205, 14.421, 50.000
89.700, 92.855, 14.601, 50.000
77.000, 91.269, 14.778, 50.000
93.700, 91.512, 14.951, 50.000
87.600, 91.121, 15.121, 50.000
82.300, 90.239, 15.287, 50.000
90.700, 90.285, 15.450, 50.000
95.800, 90.837, 15.610, 50.000
94.800, 91.233, 15.766, 50.000
96.800, 91.790, 15.920, 50.000
105.000, 93.111, 16.070, 50.000
87.100, 92.510, 16.218, 50.000
102.000, 93.459, 16.362, 50.000
85.900, 92.703, 16.504, 50.000
89.800, 92.413, 16.642, 50.000
79.600, 91.131, 16.778, 50.000
95.900, 91.608, 16.911, 50.000
86.500, 91.097, 17.042, 50.000
82.800, 90.268, 17.170, 50.000
98.800, 91.121, 17.295, 50.000
89.800, 90.989, 17.235, 50.000
88.800, 90.770, 17.175, 50.000
89.800, 90.673, 17.117, 50.000
86.800, 90.286, 17.013, 50.000
85.800, 89.837, 16.910, 50.000
85.900, 89.443, 16.810, 50.000
84.900, 88.989, 16.711, 50.000
82.900, 88.380, 16.615, 50.000
98.900, 89.432, 16.520, 50.000
97.800, 90.269, 16.428, 50.000
89.900, 90.232, 16.337, 50.000
90.800, 90.289, 16.241, 50.000
97.900, 91.050, 16.147, 50.000
83.700, 90.315, 16.054, 50.000
89.800, 90.263, 15.964, 50.000
88.900, 90.127, 15.875, 50.000
91.800, 90.294, 15.747, 50.000
89.800, 90.245, 15.622, 50.000
81.900, 89.410, 15.499, 50.000
89.900, 89.459, 15.378, 50.000
93.800, 89.893, 15.260, 50.000
85.900, 89.494, 15.144, 50.000
95.800, 90.125, 15.030, 50.000
97.000, 90.812, 14.919, 50.000
82.900, 90.021, 14.810, 50.000
88.900, 89.909, 14.703, 50.000
89.900, 89.908, 14.599, 50.000
89.900, 89.907, 14.496, 50.000
79.900, 88.906, 14.395, 50.000
90.800, 89.096, 14.288, 50.000
82.900, 88.476, 14.182, 50.000
82.900, 87.919, 14.078, 50.000
97.800, 88.907, 13.977, 50.000
115.000, 91.516, 13.878, 50.000
89.900, 91.354, 14.070, 50.000
90.700, 91.289, 14.258, 50.000
76.800, 89.840, 14.443, 50.000
93.900, 90.246, 14.623, 50.000
83.000, 89.522, 14.801, 50.000
99.900, 90.559, 14.974, 50.000
89.900, 90.493, 15.144, 50.000
88.900, 90.334, 15.311, 50.000
96.800, 90.981, 15.475, 50.000
79.800, 89.863, 15.635, 50.000
89.700, 89.846, 15.792, 50.000
95.800, 90.442, 15.946, 50.000
91.800, 90.578, 16.096, 50.000
93.000, 90.820, 16.244, 50.000
90.900, 90.828, 16.389, 50.000
76.900, 89.435, 16.531, 50.000
85.900, 89.082, 16.670, 50.000
85.900, 88.763, 16.806, 50.000
84.600, 88.347, 16.940, 50.000
100.000, 89.512, 17.071, 50.000
79.900, 88.551, 16.990, 50.000
104.000, 90.096, 16.911, 50.000
95.800, 90.666, 16.851, 50.000
94.800, 91.080, 16.792, 50.000
97.700, 91.742, 16.734, 50.000
96.800, 92.248, 16.678, 50.000
90.800, 92.103, 16.622, 50.000
89.900, 91.883, 16.568, 50.000
90.900, 91.784, 16.514, 50.000
79.800, 90.586, 16.462, 50.000
88.900, 90.417, 16.411, 50.000
94.900, 90.866, 16.361, 50.000
77.000, 89.479, 16.312, 50.000
97.000, 90.231, 16.264, 50.000
80.800, 89.288, 16.216, 50.000
86.700, 89.029, 16.170, 50.000
101.000, 90.226, 16.125, 50.000
82.900, 89.494, 16.080, 50.000
95.800, 90.124, 16.037, 50.000
109.000, 92.012, 15.994, 50.000
91.000, 91.911, 16.014, 50.000
89.800, 91.700, 16.034, 50.000
76.900, 90.220, 16.053, 50.000
92.900, 90.488, 16.071, 50.000
97.900, 91.229, 16.090, 50.000
86.800, 90.786, 16.108, 50.000
96.900, 91.397, 16.125, 50.000
93.900, 91.648, 16.143, 50.000
100.000, 92.483, 16.160, 50.000
100.000, 93.235, 16.176, 50.000
87.900, 92.701, 16.192, 50.000
101.000, 93.531, 16.208, 50.000
96.800, 93.858, 16.224, 50.000
95.800, 94.052, 16.239, 50.000
92.800, 93.927, 16.254, 50.000
88.800, 93.414, 16.269, 50.000
90.900, 93.163, 16.283, 50.000
98.800, 93.727, 16.297, 50.000
92.800, 93.634, 16.311, 50.000
92.900, 93.560, 16.325, 50.000
84.900, 92.694, 16.265, 50.000
102.000, 93.625, 16.206, 50.000
95.900, 93.852, 16.148, 50.000
88.900, 93.357, 15.992, 50.000
99.800, 94.002, 15.840, 50.000
84.900, 93.091, 15.691, 50.000
100.000, 93.782, 15.545, 50.000
115.000, 95.904, 15.401, 50.000
95.000, 95.814, 15.475, 50.000
82.800, 94.512, 15.547, 50.000
87.800, 93.841, 15.618, 50.000
96.900, 94.147, 15.688, 50.000
93.900, 94.122, 15.756, 50.000
89.900, 93.700, 15.823, 50.000
89.900, 93.320, 15.888, 50.000
84.100, 92.398, 15.953, 50.000
98.800, 93.038, 16.015, 50.000
79.000, 91.634, 16.077, 50.000
89.900, 91.461, 16.137, 50.000
105.000, 92.815, 16.197, 50.000
87.100, 92.243, 16.255, 50.000
103.000, 93.319, 16.311, 50.000
83.200, 92.307, 16.367, 50.000
89.900, 92.066, 16.422, 50.000
82.900, 91.150, 16.475, 50.000
99.500, 91.985, 16.528, 50.000
116.000, 94.386, 16.579, 50.000
98.900, 94.838, 16.680, 50.000
80.800, 93.434, 16.778, 50.000
83.800, 92.471, 16.875, 50.000
93.900, 92.613, 16.970, 50.000
82.900, 91.642, 17.063, 50.000
95.800, 92.058, 17.154, 50.000
89.800, 91.832, 17.243, 50.000
89.900, 91.639, 17.330, 50.000
106.000, 93.075, 17.416, 50.000
86.900, 92.458, 17.500, 50.000
102.000, 93.412, 17.582, 50.000
85.000, 92.571, 17.663, 50.000
100.000, 93.314, 17.742, 50.000
83.100, 92.292, 17.819, 50.000
89.800, 92.043, 17.895, 50.000
96.800, 92.519, 17.970, 50.000
88.800, 92.147, 18.042, 50.000
96.700, 92.602, 18.114, 50.000
82.800, 91.622, 18.184, 50.000
83.800, 90.840, 18.252, 50.000
98.800, 91.636, 18.146, 50.000
82.900, 90.762, 18.041, 50.000
102.000, 91.886, 17.939, 50.000
90.000, 91.697, 17.839, 50.000
84.900, 91.018, 17.741, 50.000
96.800, 91.596, 17.644, 50.000
86.900, 91.126, 17.550, 50.000
95.700, 91.584, 17.457, 50.000
87.800, 91.205, 17.367, 50.000
92.900, 91.375, 17.222, 50.000
89.900, 91.227, 17.080, 50.000
86.900, 90.795, 16.940, 50.000
96.800, 91.395, 16.804, 50.000
88.900, 91.146, 16.670, 50.000
80.800, 90.111, 16.539, 50.000
96.800, 90.780, 16.410, 50.000
86.900, 90.392, 16.284, 50.000
102.000, 91.553, 16.161, 50.000
95.700, 91.967, 16.047, 50.000
93.900, 92.161, 15.935, 50.000
106.000, 93.545, 15.825, 50.000
87.000, 92.890, 15.758, 50.000
103.000, 93.901, 15.692, 50.000
85.100, 93.021, 15.627, 50.000
101.000, 93.819, 15.563, 50.000
83.000, 92.737, 15.501, 50.000
89.700, 92.433, 15.440, 50.000
82.700, 91.460, 15.381, 50.000
98.600, 92.174, 15.322, 50.000
96.700, 92.627, 15.265, 50.000
79.000, 91.264, 15.209, 50.000
106.000, 92.738, 15.153, 50.000
113.000, 94.764, 15.116, 50.000
96.000, 94.887, 15.178, 50.000
85.700, 93.969, 15.239, 50.000
99.800, 94.552, 15.299, 50.000
83.900, 93.487, 15.358, 50.000
116.000, 95.738, 15.415, 50.000
99.000, 96.064, 15.512, 50.000
86.900, 95.148, 15.607, 50.000
95.900, 95.223, 15.701, 50.000
91.800, 94.881, 15.792, 50.000
83.800, 93.773, 15.881, 50.000
97.800, 94.175, 15.969, 50.000
86.900, 93.448, 16.055, 50.000
86.800, 92.783, 16.139, 50.000
89.000, 92.405, 16.221, 50.000
91.900, 92.354, 16.302, 50.000
96.900, 92.809, 16.381, 50.000
85.900, 92.118, 16.459, 50.000
96.800, 92.586, 16.535, 50.000
82.800, 91.608, 16.609, 50.000
83.800, 90.827, 16.683, 50.000
95.900, 91.334, 16.754, 50.000
82.800, 90.481, 16.824, 50.000
89.000, 90.333, 16.893, 50.000
95.800, 90.879, 16.960, 50.000
86.800, 90.471, 17.026, 50.000
96.800, 91.104, 16.885, 50.000
82.700, 90.264, 16.747, 50.000
82.900, 89.527, 16.612, 50.000
98.900, 90.465, 16.479, 50.000
83.800, 89.798, 16.349, 50.000
88.800, 89.698, 16.198, 50.000
90.700, 89.799, 16.050, 50.000
86.900, 89.509, 15.905, 50.000
95.800, 90.138, 15.763, 50.000
89.800, 90.104, 15.624, 50.000
88.700, 89.964, 15.488, 50.000
87.800, 89.747, 15.354, 50.000
83.000, 89.073, 15.223, 50.000
83.900, 88.555, 15.095, 50.000
96.900, 89.390, 14.962, 50.000
89.800, 89.431, 14.831, 50.000
89.700, 89.458, 14.703, 50.000
95.700, 90.082, 14.578, 50.000
90.800, 90.154, 14.455, 50.000
86.800, 89.818, 14.335, 50.000
88.800, 89.717, 14.217, 50.000
87.900, 89.535, 14.101, 50.000
87.800, 89.361, 13.988, 50.000
102.000, 90.625, 13.877, 50.000
85.200, 90.083, 13.827, 50.000
90.800, 90.154, 13.778, 50.000
82.900, 89.429, 13.730, 50.000
99.000, 90.386, 13.683, 50.000
96.600, 91.008, 13.636, 50.000
96.000, 91.507, 13.591, 50.000
89.700, 91.326, 13.547, 50.000
86.800, 90.873, 13.503, 50.000
103.000, 92.086, 13.461, 50.000
85.900, 91.468, 13.419, 50.000
91.700, 91.491, 13.378, 50.000
83.800, 90.722, 13.338, 50.000
99.800, 91.630, 13.299, 50.000
96.700, 92.137, 13.260, 50.000
79.000, 90.823, 13.223, 50.000
106.000, 92.341, 13.195, 50.000
103.000, 93.407, 13.204, 50.000
86.000, 92.666, 13.213, 50.000
85.800, 91.979, 13.222, 50.000
99.900, 92.771, 13.231, 50.000
83.000, 91.794, 13.239, 50.000
99.900, 92.605, 13.248, 50.000
89.800, 92.324, 13.256, 50.000
86.900, 91.782, 13.264, 50.000
103.000, 92.904, 13.272, 50.000
83.900, 92.003, 13.280, 50.000
89.700, 91.773, 13.287, 50.000
81.900, 90.786, 13.295, 50.000
97.800, 91.487, 13.302, 50.000
89.900, 91.328, 13.309, 50.000
91.900, 91.386, 13.316, 50.000
96.900, 91.937, 13.323, 50.000
86.900, 91.433, 13.330, 50.000
88.800, 91.170, 13.336, 50.000
89.900, 91.043, 13.343, 50.000
89.800, 90.919, 13.349, 50.000
98.900, 91.717, 13.284, 50.000
79.900, 90.535, 13.220, 50.000
89.800, 90.462, 13.169, 50.000
89.900, 90.405, 13.118, 50.000
82.800, 89.645, 13.068, 50.000
99.800, 90.660, 13.020, 50.000
82.800, 89.874, 12.972, 50.000
90.900, 89.977, 12.925, 50.000
98.900, 90.869, 12.879, 50.000
82.700, 90.052, 12.835, 50.000
82.900, 89.337, 12.791, 50.000
98.800, 90.283, 12.747, 50.000
89.800, 90.235, 12.705, 50.000
86.900, 89.902, 12.664, 50.000
107.000, 91.611, 12.623, 50.000
87.000, 91.150, 12.679, 50.000
102.000, 92.235, 12.733, 50.000
85.000, 91.512, 12.786, 50.000
100.000, 92.361, 12.838, 50.000
83.000, 91.424, 12.889, 50.000
89.800, 91.262, 12.939, 50.000
79.700, 90.106, 12.988, 50.000
96.000, 90.695, 13.036, 50.000
86.700, 90.296, 13.083, 50.000
82.800, 89.546, 13.129, 50.000
98.900, 90.482, 13.174, 50.000
82.900, 89.723, 13.219, 50.000
89.900, 89.741, 13.262, 50.000
89.900, 89.757, 13.304, 50.000
87.000, 89.481, 13.346, 50.000
96.700, 90.203, 13.387, 50.000
88.700, 90.053, 13.427, 50.000
89.800, 90.028, 13.466, 50.000
105.000, 91.525, 13.505, 50.000
87.100, 91.082, 13.542, 50.000
102.000, 92.174, 13.541, 50.000
85.100, 91.467, 13.540, 50.000
90.900, 91.410, 13.538, 50.000
82.900, 90.559, 13.537, 50.000
99.700, 91.473, 13.536, 50.000
96.700, 91.996, 13.535, 50.000
95.900, 92.386, 13.534, 50.000
106.000, 93.748, 13.532, 50.000
87.100, 93.083, 13.531, 50.000
85.900, 92.365, 13.530, 50.000
84.800, 91.608, 13.529, 50.000
83.600, 90.807, 13.528, 50.000
82.900, 90.017, 13.527, 50.000
83.700, 89.385, 13.526, 50.000
81.800, 88.626, 13.525, 50.000
97.800, 89.544, 13.524, 50.000
96.900, 90.279, 13.523, 50.000
95.900, 90.841, 13.522, 50.000
90.900, 90.847, 13.521, 50.000
86.900, 90.453, 13.496, 50.000
102.000, 91.607, 13.471, 50.000
85.000, 90.947, 13.446, 50.000
91.900, 91.042, 13.423, 50.000
82.900, 90.228, 13.399, 50.000
98.900, 91.095, 13.376, 50.000
96.700, 91.655, 13.354, 50.000
79.100, 90.400, 13.332, 50.000
106.000, 91.960, 13.310, 50.000
87.000, 91.464, 13.325, 50.000
104.000, 92.718, 13.339, 50.000
87.800, 92.226, 13.353, 50.000
99.900, 92.993, 13.367, 50.000
82.900, 91.984, 13.380, 50.000
98.700, 92.655, 13.393, 50.000
79.000, 91.290, 13.406, 50.000
92.000, 91.361, 13.419, 50.000
106.000, 92.825, 13.431, 50.000
94.900, 93.032, 13.444, 50.000
87.800, 92.509, 13.456, 50.000
83.000, 91.558, 13.467, 50.000
95.900, 91.992, 13.479, 50.000
89.800, 91.773, 13.490, 50.000
125.000, 95.096, 13.501, 50.000
107.000, 96.286, 13.829, 50.000
